{
    "code":1,
    "result":[
        {
            "id":"1",
            "title":"Hall 1",
            "stall_list":[
                {
                    "id":"1",
                    "title":"Demo Stall",
                    "image":"asd.jpg",
                    "order_index":"0",
                    "status":"1",
                    "stalls":[
                        {
                            "id":"720",
                            "title":"Security",
                            "hall_id":"1",
                            "position_top":"0",
                            "position_left":"0"
                        },
                        {
                            "id":"719",
                            "title":"Security",
                            "hall_id":"1",
                            "position_top":"0",
                            "position_left":"0"
                        },{"id":"718","title":"Security","hall_id":"1","position_top":"0","position_left":"0"},{"id":"717","title":"Security","hall_id":"1","position_top":"0","position_left":"0"},{"id":"716","title":"Security","hall_id":"1","position_top":"0","position_left":"0"},{"id":"645","title":"Security","hall_id":"1","position_top":"0","position_left":"0"},{"id":"644","title":"Fire","hall_id":"1","position_top":"0","position_left":"0"},{"id":"643","title":"EP","hall_id":"1","position_top":"0","position_left":"0"},{"id":"642","title":"BMS","hall_id":"1","position_top":"0","position_left":"0"}]}]},{"id":"2","title":"Hall 2","stall_list":[{"id":"2","title":"Demo Stall 2","image":"abc.jpg","order_index":"0","status":"1","stalls":[{"id":"724","title":"Security","hall_id":"2","position_top":"0","position_left":"0"},{"id":"723","title":"Security","hall_id":"2","position_top":"0","position_left":"0"},{"id":"722","title":"Security","hall_id":"2","position_top":"0","position_left":"0"},{"id":"721","title":"Security","hall_id":"2","position_top":"0","position_left":"0"}]}]}]}